codes/CPU.vcd
$date
	Fri Dec 11 21:50:14 2020
$end
$version
	Icarus Verilog
$end
$timescale
	1s
$end
$scope module TestBench $end
$var reg 1 ! Clk $end
$var reg 1 " Reset $end
$var reg 1 # Start $end
$var integer 32 $ counter [31:0] $end
$var integer 32 % flush [31:0] $end
$var integer 32 & i [31:0] $end
$var integer 32 ' outfile [31:0] $end
$var integer 32 ( stall [31:0] $end
$scope module CPU $end
$var wire 1 ! clk_i $end
$var wire 1 " rst_i $end
$var wire 1 # start_i $end
$scope module ALU $end
$var wire 1 ) Zero_o $end
$var wire 32 * data2_i [31:0] $end
$var wire 32 + data1_i [31:0] $end
$var wire 3 , ALUCtrl_i [2:0] $end
$var reg 32 - data_o [31:0] $end
$upscope $end
$scope module ALU_Control $end
$var wire 10 . funct_i [9:0] $end
$var wire 2 / ALUOp_i [1:0] $end
$var reg 3 0 ALUCtrl_o [2:0] $end
$upscope $end
$scope module Add_PC $end
$var wire 32 1 data2_in [31:0] $end
$var wire 32 2 data_o [31:0] $end
$var wire 32 3 data1_in [31:0] $end
$upscope $end
$scope module Control $end
$var wire 7 4 Op_i [6:0] $end
$var reg 2 5 ALUOp_o [1:0] $end
$var reg 1 6 ALUSrc_o $end
$var reg 1 7 MemRead_o $end
$var reg 1 8 MemToReg_o $end
$var reg 1 9 MemWrite_o $end
$var reg 1 : RegWrite_o $end
$upscope $end
$scope module Data_Memory $end
$var wire 1 ! clk_i $end
$var wire 32 ; data_o [31:0] $end
$var wire 32 < data_i [31:0] $end
$var wire 32 = addr_i [31:0] $end
$var wire 1 > MemWrite_i $end
$var wire 1 ? MemRead_i $end
$upscope $end
$scope module EX_MEM $end
$var wire 32 @ ALUresult_i [31:0] $end
$var wire 1 ! clk_i $end
$var wire 1 A RegWrite_i $end
$var wire 32 B Readdata2_i [31:0] $end
$var wire 1 C MemWrite_i $end
$var wire 1 D MemToReg_i $end
$var wire 1 E MemRead_i $end
$var wire 5 F INS_11_7_i [4:0] $end
$var reg 32 G ALUresult_o [31:0] $end
$var reg 5 H INS_11_7_o [4:0] $end
$var reg 1 ? MemRead_o $end
$var reg 1 I MemToReg_o $end
$var reg 1 > MemWrite_o $end
$var reg 32 J Readdata2_o [31:0] $end
$var reg 1 K RegWrite_o $end
$upscope $end
$scope module ID_EX $end
$var wire 2 L ALUOp_i [1:0] $end
$var wire 1 6 ALUSrc_i $end
$var wire 10 M ALU_i [9:0] $end
$var wire 1 7 MemRead_i $end
$var wire 1 8 MemToReg_i $end
$var wire 1 9 MemWrite_i $end
$var wire 1 : RegWrite_i $end
$var wire 1 ! clk_i $end
$var wire 32 N Readdata2_i [31:0] $end
$var wire 32 O Readdata1_i [31:0] $end
$var wire 32 P Imm_i [31:0] $end
$var wire 5 Q INS_11_7_i [4:0] $end
$var reg 2 R ALUOp_o [1:0] $end
$var reg 1 S ALUSrc_o $end
$var reg 10 T ALU_o [9:0] $end
$var reg 5 U INS_11_7_o [4:0] $end
$var reg 32 V Imm_o [31:0] $end
$var reg 1 E MemRead_o $end
$var reg 1 D MemToReg_o $end
$var reg 1 C MemWrite_o $end
$var reg 32 W Readdata1_o [31:0] $end
$var reg 32 X Readdata2_o [31:0] $end
$var reg 1 A RegWrite_o $end
$upscope $end
$scope module IF_ID $end
$var wire 1 ! clk_i $end
$var wire 32 Y IF_ID_i [31:0] $end
$var reg 32 Z IF_ID_o [31:0] $end
$upscope $end
$scope module Instruction_Memory $end
$var wire 32 [ instr_o [31:0] $end
$var wire 32 \ addr_i [31:0] $end
$upscope $end
$scope module MEM_WB $end
$var wire 32 ] ALUresult_i [31:0] $end
$var wire 5 ^ INS_11_7_i [4:0] $end
$var wire 1 I MemToReg_i $end
$var wire 32 _ Readdata_i [31:0] $end
$var wire 1 K RegWrite_i $end
$var wire 1 ! clk_i $end
$var reg 32 ` ALUresult_o [31:0] $end
$var reg 5 a INS_11_7_o [4:0] $end
$var reg 1 b MemToReg_o $end
$var reg 32 c Readdata_o [31:0] $end
$var reg 1 d RegWrite_o $end
$upscope $end
$scope module MUX_ALUSrc $end
$var wire 32 e data1_i [31:0] $end
$var wire 32 f data2_i [31:0] $end
$var wire 1 S select_i $end
$var wire 32 g data_o [31:0] $end
$upscope $end
$scope module MUX_RegisterSrc $end
$var wire 32 h data1_i [31:0] $end
$var wire 32 i data2_i [31:0] $end
$var wire 1 b select_i $end
$var wire 32 j data_o [31:0] $end
$upscope $end
$scope module PC $end
$var wire 1 k PCWrite_i $end
$var wire 1 ! clk_i $end
$var wire 32 l pc_i [31:0] $end
$var wire 1 " rst_i $end
$var wire 1 # start_i $end
$var reg 32 m pc_o [31:0] $end
$upscope $end
$scope module Registers $end
$var wire 5 n RD1addr_i [4:0] $end
$var wire 5 o RD2addr_i [4:0] $end
$var wire 1 d RegWrite_i $end
$var wire 5 p WRaddr_i [4:0] $end
$var wire 32 q WRdata_i [31:0] $end
$var wire 1 ! clk_i $end
$var wire 32 r RD2data_o [31:0] $end
$var wire 32 s RD1data_o [31:0] $end
$upscope $end
$scope module Sign_Extend $end
$var wire 32 t data_i [31:0] $end
$var wire 32 u data_o [31:0] $end
$upscope $end
$upscope $end
$upscope $end
$enddefinitions $end
#0
$dumpvars
bx u
bx t
bx s
bx r
b0 q
b0 p
bx o
bx n
b0 m
b100 l
1k
b0 j
b0 i
b0 h
bx g
b0 f
bx e
0d
b0 c
0b
b0 a
b0 `
b0 _
b0 ^
b0 ]
b0 \
b101100000000001010010011 [
bx Z
b101100000000001010010011 Y
bx X
bx W
b0 V
b0 U
b0 T
0S
b0 R
bx Q
bx P
bx O
bx N
bx M
b0 L
0K
b0 J
0I
b0 H
b0 G
b0 F
0E
0D
0C
bx B
0A
bx @
0?
0>
b0 =
b0 <
b0 ;
0:
09
08
07
06
b0 5
bx 4
b0 3
b100 2
b100 1
b0 0
b0 /
b0 .
bx -
b0 ,
bx +
bx *
z)
b0 (
b11 '
b100000 &
b0 %
b0 $
0#
1"
1!
$end
#12
1#
0"
#25
0!
#50
1:
16
b1 5
b1 L
b0 O
b0 s
b0 N
b0 r
b10011 4
b0 n
b1011 o
b0 M
b101 Q
b1010010011 P
b1010010011 u
b101000000000001100010011 Y
b101000000000001100010011 [
bx =
bx G
bx ]
bx <
bx J
bx F
bx U
bx .
bx T
bx V
bx f
b101100000000001010010011 Z
b101100000000001010010011 t
b1000 2
b1000 l
b100 3
b100 \
b100 m
b1 $
1!
#75
0!
#100
b1010 o
b110 Q
b1100010011 P
b1100010011 u
b1010010011 -
b1010010011 @
b1010010011 *
b1010010011 g
bx j
bx q
b100010111100000011 Y
b100010111100000011 [
b101000000000001100010011 Z
b101000000000001100010011 t
b101 F
b101 U
b0 .
b0 T
b1010010011 V
b1010010011 f
b0 B
b0 X
b0 e
b0 +
b0 W
b1 /
b1 R
1S
1A
bx H
bx ^
bx `
bx h
b1100 2
b1100 l
b1000 3
b1000 \
b1000 m
b10 $
1!
#125
0!
#150
b1100010011 -
b1100010011 @
18
17
b1100010011 *
b1100010011 g
b11 4
b100 n
b0 o
b10 M
b11110 Q
b11111111111111111111111100000011 P
b11111111111111111111111100000011 u
b111100000000001110010011 Y
b111100000000001110010011 [
bx a
bx p
b101 H
b101 ^
b1010010011 =
b1010010011 G
b1010010011 ]
b0 <
b0 J
1K
b110 F
b110 U
b1100010011 V
b1100010011 f
b100010111100000011 Z
b100010111100000011 t
b10000 2
b10000 l
b1100 3
b1100 \
b1100 m
b11 $
1!
#175
0!
#200
08
07
b11111111111111111111111000000110 -
b11111111111111111111111000000110 @
b10011 4
b0 n
b1111 o
b0 M
b111 Q
b1110010011 P
b1110010011 u
b111 ,
b111 0
b11111111111111111111111100000011 *
b11111111111111111111111100000011 g
b1010010011 j
b1010010011 q
b1100000000010000010011 Y
b1100000000010000010011 [
b111100000000001110010011 Z
b111100000000001110010011 t
b11110 F
b11110 U
b10 .
b10 T
b11111111111111111111111100000011 V
b11111111111111111111111100000011 f
1E
1D
b110 H
b110 ^
b1100010011 =
b1100010011 G
b1100010011 ]
b101 a
b101 p
b1010010011 `
b1010010011 h
1d
b10100 2
b10100 l
b10000 3
b10000 \
b10000 m
b100 $
1!
#225
0!
#250
b1110010011 -
b1110010011 @
b1100010011 j
b1100010011 q
bx ;
bx _
b0 ,
b0 0
b1110010011 *
b1110010011 g
b11 o
b1000 Q
b10000010011 P
b10000010011 u
b101100010010110011 Y
b101100010010110011 [
b110 a
b110 p
b1100010011 `
b1100010011 h
b11110 H
b11110 ^
b11111111111111111111111000000110 =
b11111111111111111111111000000110 G
b11111111111111111111111000000110 ]
1?
1I
b111 F
b111 U
b0 .
b0 T
b1110010011 V
b1110010011 f
0E
0D
b1100000000010000010011 Z
b1100000000010000010011 t
b11000 2
b11000 l
b10100 3
b10100 \
b10100 m
b101 $
1!
#275
0!
#300
06
b0 5
b0 L
b1010010011 O
b1010010011 s
b10000010011 -
b10000010011 @
b110011 4
b101 n
b0 o
b100 M
b1001 Q
b10010110011 P
b10010110011 u
b10000010011 *
b10000010011 g
b0 ;
b0 _
bx j
bx q
b11000101111111000110011 Y
b11000101111111000110011 [
b101100010010110011 Z
b101100010010110011 t
b1000 F
b1000 U
b10000010011 V
b10000010011 f
b111 H
b111 ^
b1110010011 =
b1110010011 G
b1110010011 ]
0?
0I
b11110 a
b11110 p
b11111111111111111111111000000110 `
b11111111111111111111111000000110 h
bx c
bx i
1b
b11100 2
b11100 l
b11000 3
b11000 \
b11000 m
b110 $
1!
#325
0!
#350
b1100010011 N
b1100010011 r
b1110010011 j
b1110010011 q
b1010010011 -
b1010010011 @
b11 ,
b11 0
b0 *
b0 g
b110 o
b111 M
b11100 Q
b11111111111111111111111000110011 P
b11111111111111111111111000110011 u
b1000000011000101000010000110011 Y
b1000000011000101000010000110011 [
b111 a
b111 p
b1110010011 `
b1110010011 h
b0 c
b0 i
0b
b1000 H
b1000 ^
b10000010011 =
b10000010011 G
b10000010011 ]
b1001 F
b1001 U
b100 .
b100 T
b10010110011 V
b10010110011 f
b1010010011 +
b1010010011 W
b0 /
b0 R
0S
b11000101111111000110011 Z
b11000101111111000110011 t
b100000 2
b100000 l
b11100 3
b11100 \
b11100 m
b111 $
1!
#375
0!
#400
b1000010011 -
b1000010011 @
b100000000 M
b1000 Q
b10000110011 P
b10000110011 u
b10 ,
b10 0
b1100010011 *
b1100010011 g
b10000010011 j
b10000010011 q
b10011000110000111010110011 Y
b10011000110000111010110011 [
b1000000011000101000010000110011 Z
b1000000011000101000010000110011 t
b11100 F
b11100 U
b111 .
b111 T
b11111111111111111111111000110011 V
b11111111111111111111111000110011 f
b1100010011 B
b1100010011 X
b1100010011 e
b1001 H
b1001 ^
b1010010011 =
b1010010011 G
b1010010011 ]
b1000 a
b1000 p
b10000010011 `
b10000010011 h
b100100 2
b100100 l
b100000 3
b100000 \
b100000 m
b1000 $
1!
#425
0!
#450
b11111111111111111111111110000000 -
b11111111111111111111111110000000 @
b1100010011 O
b1100010011 s
b1010010011 j
b1010010011 q
b1 ,
b1 0
b110 n
b1000 M
b11101 Q
b11111111111111111111111010110011 P
b11111111111111111111111010110011 u
b10011101001000111100110011 Y
b10011101001000111100110011 [
b1001 a
b1001 p
b1010010011 `
b1010010011 h
b11100 H
b11100 ^
b1000010011 =
b1000010011 G
b1000010011 ]
b1100010011 <
b1100010011 J
b1000 F
b1000 U
b100000000 .
b100000000 T
b10000110011 V
b10000110011 f
b10011000110000111010110011 Z
b10011000110000111010110011 t
b101000 2
b101000 l
b100100 3
b100100 \
b100100 m
b1001 $
1!
#475
0!
#500
b1010010011 O
b1010010011 s
b1110010011 N
b1110010011 r
b1001 n
b111 o
b11110 Q
b11111111111111111111111100110011 P
b11111111111111111111111100110011 u
b100 ,
b100 0
b10010111001101101001 -
b10010111001101101001 @
b1000010011 j
b1000010011 q
b100100101010001010100011 Y
b100100101010001010100011 [
b10011101001000111100110011 Z
b10011101001000111100110011 t
b11101 F
b11101 U
b1000 .
b1000 T
b11111111111111111111111010110011 V
b11111111111111111111111010110011 f
b1100010011 +
b1100010011 W
b1000 H
b1000 ^
b11111111111111111111111110000000 =
b11111111111111111111111110000000 G
b11111111111111111111111110000000 ]
b11100 a
b11100 p
b1000010011 `
b1000010011 h
b101100 2
b101100 l
b101000 3
b101000 \
b101000 m
b1010 $
1!
#525
0!
#550
19
0:
16
b10 5
b10 L
b1010010011 N
b1010010011 r
b11111111111111111111111110000000 j
b11111111111111111111111110000000 q
b1110010011 *
b1110010011 g
b10010011001101101001 -
b10010011001101101001 @
b100011 4
b101 n
b1001 o
b10 M
b101 Q
b1010100011 P
b1010100011 u
b0 Y
b0 [
b1000 a
b1000 p
b11111111111111111111111110000000 `
b11111111111111111111111110000000 h
b11101 H
b11101 ^
b10010111001101101001 =
b10010111001101101001 G
b10010111001101101001 ]
b11110 F
b11110 U
b11111111111111111111111100110011 V
b11111111111111111111111100110011 f
b1110010011 B
b1110010011 X
b1110010011 e
b1010010011 +
b1010010011 W
b100100101010001010100011 Z
b100100101010001010100011 t
b110000 2
b110000 l
b101100 3
b101100 \
b101100 m
b1011 $
1!
#575
0!
#600
b0 O
b0 s
b0 N
b0 r
b11111011001 -
b11111011001 @
b0 4
b0 n
b0 o
b0 M
b0 Q
b0 P
b0 u
b111 ,
b111 0
b1010100011 *
b1010100011 g
b10010111001101101001 j
b10010111001101101001 q
b0 Z
b0 t
b101 F
b101 U
b10 .
b10 T
b1010100011 V
b1010100011 f
b1010010011 B
b1010010011 X
b1010010011 e
b10 /
b10 R
1S
1C
0A
b11110 H
b11110 ^
b10010011001101101001 =
b10010011001101101001 G
b10010011001101101001 ]
b1110010011 <
b1110010011 J
b11101 a
b11101 p
b10010111001101101001 `
b10010111001101101001 h
b110100 2
b110100 l
b110000 3
b110000 \
b110000 m
b1100 $
1!
#625
0!
#650
b10010011001101101001 j
b10010011001101101001 q
b0 *
b0 g
b0 -
b0 @
b11110 a
b11110 p
b10010011001101101001 `
b10010011001101101001 h
b101 H
b101 ^
b11111011001 =
b11111011001 G
b11111011001 ]
b1010010011 <
b1010010011 J
1>
0K
b0 F
b0 U
b0 .
b0 T
b0 V
b0 f
b0 B
b0 X
b0 e
b0 +
b0 W
b111000 2
b111000 l
b110100 3
b110100 \
b110100 m
b1101 $
1!
#675
0!
#700
b11111011001 j
b11111011001 q
b0 H
b0 ^
b0 =
b0 G
b0 ]
b0 <
b0 J
b101 a
b101 p
b11111011001 `
b11111011001 h
0d
b111100 2
b111100 l
b111000 3
b111000 \
b111000 m
b1110 $
1!
#725
0!
#750
b0 j
b0 q
b0 a
b0 p
b0 `
b0 h
b1000000 2
b1000000 l
b111100 3
b111100 \
b111100 m
b1111 $
1!
#775
0!
#800
b1000100 2
b1000100 l
b1000000 3
b1000000 \
b1000000 m
b10000 $
1!
#825
0!
#850
b1001000 2
b1001000 l
b1000100 3
b1000100 \
b1000100 m
b10001 $
1!
#875
0!
#900
b1001100 2
b1001100 l
b1001000 3
b1001000 \
b1001000 m
b10010 $
1!
#925
0!
#950
b1010000 2
b1010000 l
b1001100 3
b1001100 \
b1001100 m
b10011 $
1!
#975
0!
#1000
b1010100 2
b1010100 l
b1010000 3
b1010000 \
b1010000 m
b10100 $
1!
#1025
0!
#1050
b1011000 2
b1011000 l
b1010100 3
b1010100 \
b1010100 m
b10101 $
1!
#1075
0!
#1100
b1011100 2
b1011100 l
b1011000 3
b1011000 \
b1011000 m
b10110 $
1!
#1125
0!
#1150
b1100000 2
b1100000 l
b1011100 3
b1011100 \
b1011100 m
b10111 $
1!
#1175
0!
#1200
b1100100 2
b1100100 l
b1100000 3
b1100000 \
b1100000 m
b11000 $
1!
#1225
0!
#1250
b1101000 2
b1101000 l
b1100100 3
b1100100 \
b1100100 m
b11001 $
1!
#1275
0!
#1300
b1101100 2
b1101100 l
b1101000 3
b1101000 \
b1101000 m
b11010 $
1!
#1325
0!
#1350
b1110000 2
b1110000 l
b1101100 3
b1101100 \
b1101100 m
b11011 $
1!
#1375
0!
#1400
b1110100 2
b1110100 l
b1110000 3
b1110000 \
b1110000 m
b11100 $
1!
#1425
0!
#1450
b1111000 2
b1111000 l
b1110100 3
b1110100 \
b1110100 m
b11101 $
1!
#1475
0!
#1500
b1111100 2
b1111100 l
b1111000 3
b1111000 \
b1111000 m
b11110 $
1!
#1525
0!
#1550
b10000000 2
b10000000 l
b1111100 3
b1111100 \
b1111100 m
b11111 $
1!
#1575
0!
#1600
b10000100 2
b10000100 l
b10000000 3
b10000000 \
b10000000 m
b100000 $
1!
#1625
0!
#1650
b10001000 2
b10001000 l
b10000100 3
b10000100 \
b10000100 m
b100001 $
1!
#1675
0!
#1700
b10001100 2
b10001100 l
b10001000 3
b10001000 \
b10001000 m
b100010 $
1!
#1725
0!
#1750
b10010000 2
b10010000 l
b10001100 3
b10001100 \
b10001100 m
b100011 $
1!
#1775
0!
#1800
b10010100 2
b10010100 l
b10010000 3
b10010000 \
b10010000 m
b100100 $
1!
#1825
0!
#1850
b10011000 2
b10011000 l
b10010100 3
b10010100 \
b10010100 m
b100101 $
1!
#1875
0!
#1900
b10011100 2
b10011100 l
b10011000 3
b10011000 \
b10011000 m
b100110 $
1!
#1925
0!
#1950
b10100000 2
b10100000 l
b10011100 3
b10011100 \
b10011100 m
b100111 $
1!
#1975
0!
#2000
b10100100 2
b10100100 l
b10100000 3
b10100000 \
b10100000 m
b101000 $
1!
#2025
0!
#2050
b10101000 2
b10101000 l
b10100100 3
b10100100 \
b10100100 m
b101001 $
1!
#2075
0!
#2100
b10101100 2
b10101100 l
b10101000 3
b10101000 \
b10101000 m
b101010 $
1!
#2125
0!
#2150
b10110000 2
b10110000 l
b10101100 3
b10101100 \
b10101100 m
b101011 $
1!
#2175
0!
#2200
b10110100 2
b10110100 l
b10110000 3
b10110000 \
b10110000 m
b101100 $
1!
#2225
0!
#2250
b10111000 2
b10111000 l
b10110100 3
b10110100 \
b10110100 m
b101101 $
1!
#2275
0!
#2300
b10111100 2
b10111100 l
b10111000 3
b10111000 \
b10111000 m
b101110 $
1!
#2325
0!
#2350
b11000000 2
b11000000 l
b10111100 3
b10111100 \
b10111100 m
b101111 $
1!
#2375
0!
#2400
b11000100 2
b11000100 l
b11000000 3
b11000000 \
b11000000 m
b110000 $
1!
#2425
0!
#2450
b11001000 2
b11001000 l
b11000100 3
b11000100 \
b11000100 m
b110001 $
1!
#2475
0!
#2500
b11001100 2
b11001100 l
b11001000 3
b11001000 \
b11001000 m
b110010 $
1!
#2525
0!
#2550
b11010000 2
b11010000 l
b11001100 3
b11001100 \
b11001100 m
b110011 $
1!
#2575
0!
#2600
b11010100 2
b11010100 l
b11010000 3
b11010000 \
b11010000 m
b110100 $
1!
#2625
0!
#2650
b11011000 2
b11011000 l
b11010100 3
b11010100 \
b11010100 m
b110101 $
1!
#2675
0!
#2700
b11011100 2
b11011100 l
b11011000 3
b11011000 \
b11011000 m
b110110 $
1!
#2725
0!
#2750
b11100000 2
b11100000 l
b11011100 3
b11011100 \
b11011100 m
b110111 $
1!
#2775
0!
#2800
b11100100 2
b11100100 l
b11100000 3
b11100000 \
b11100000 m
b111000 $
1!
#2825
0!
#2850
b11101000 2
b11101000 l
b11100100 3
b11100100 \
b11100100 m
b111001 $
1!
#2875
0!
#2900
b11101100 2
b11101100 l
b11101000 3
b11101000 \
b11101000 m
b111010 $
1!
#2925
0!
#2950
b11110000 2
b11110000 l
b11101100 3
b11101100 \
b11101100 m
b111011 $
1!
#2975
0!
#3000
b11110100 2
b11110100 l
b11110000 3
b11110000 \
b11110000 m
b111100 $
1!
#3025
0!
#3050
b11111000 2
b11111000 l
b11110100 3
b11110100 \
b11110100 m
b111101 $
1!
#3075
0!
#3100
b11111100 2
b11111100 l
b11111000 3
b11111000 \
b11111000 m
b111110 $
1!
#3125
0!
#3150
b100000000 2
b100000000 l
b11111100 3
b11111100 \
b11111100 m
b111111 $
1!
#3175
0!
#3200
b100000100 2
b100000100 l
b100000000 3
b100000000 \
b100000000 m
b1000000 $
1!
#3225
0!
#3250
b100001000 2
b100001000 l
b100000100 3
b100000100 \
b100000100 m
1!
